Week 4: Sampling distributions
…
virginica_sample_dist <- iris %>%
  filter(Species == ___) %>%
  rep_slice_sample(n = 10, reps = 1000)

You can use the bind_rows() function to combine all three sets of sampling distributions into a single tibble.

iris_sample_dists <- bind_rows(
  setosa_sample_dist, 
  versicolor_sample_dist,
  virginica_sample_dist
)

iris_sample_dists

## # A tibble: 30,000 x 6
## # Groups:   replicate [1,000]
##    replicate Sepal.Length Sepal.Width Petal.Length Petal.Width Species
##        <int>        <dbl>       <dbl>        <dbl>       <dbl> <fct>  
##  1         1          5.2         3.5          1.5         0.2 setosa 
##  2         1          4.5         2.3          1.3         0.3 setosa 
##  3         1          5.7         3.8          1.7         0.3 setosa 
##  4         1          4.9         3            1.4         0.2 setosa 
##  5         1          5.8         4            1.2         0.2 setosa 
##  6         1          5           3            1.6         0.2 setosa 
##  7         1          5.1         3.3          1.7         0.5 setosa 
##  8         1          4.4         3.2          1.3         0.2 setosa 
##  9         1          4.6         3.6          1           0.2 setosa 
## 10         1          4.9         3.1          1.5         0.2 setosa 
## #  with 29,990 more rows

Now we have a very large set of samples to examine.

Sample mean \(\bar{Y}\)

To look at the distribution of the sample mean, we first need to calculate the sample mean for all 1000 replicates per species. Here is where we combine the power of group_by() and summarize(). This huge number of calculations can be done for Sepal.Length with the following code:

sepal_length_sample_dists <- iris_sample_dists %>%
  group_by(Species, replicate) %>%
  summarize(Y_bar = mean(Sepal.Length))

sepal_length_sample_dists

## # A tibble: 3,000 x 3
## # Groups:   Species [3]
##    Species replicate Y_bar
##    <fct>       <int> <dbl>
##  1 setosa          1  5.01
##  2 setosa          2  4.91
##  3 setosa          3  5.14
##  4 setosa          4  5.19
##  5 setosa          5  4.87
##  6 setosa          6  4.87
##  7 setosa          7  5.26
##  8 setosa          8  5.04
##  9 setosa          9  4.89
## 10 setosa         10  4.82
## #  with 2,990 more rows
…
